BEGIN;
CREATE SCHEMA "pL0p";
CREATE EXTENSION faker SCHEMA "pL0p" CASCADE;
NOTICE:  installing required extension "plpython3u"
SELECT "pL0p".faker('fr_FR');
 faker 
-------
 t
(1 row)

SELECT "pL0p".seed(4321);
 seed 
------
 t
(1 row)

SELECT "pL0p".name() = 'Antoine-Lucas Andre';
 ?column? 
----------
 t
(1 row)

ROLLBACK;
